{
  "images" : [
    {
      "idiom" : "universal",
      "filename" : "2000px-Seal_of_the_United_States_House_of_Representatives.svg.png",
      "scale" : "1x"
    },
    {
      "idiom" : "universal",
      "scale" : "2x"
    },
    {
      "idiom" : "universal",
      "scale" : "3x"
    }
  ],
  "info" : {
    "version" : 1,
    "author" : "xcode"
  }
}